{
  "id": "qIMhi6ohYkc",
  "chapters": [
    [
      0,
      "Welcome"
    ],
    [
      542,
      "What is the first thing a beginner should do to start taming the mind?"
    ],
    [
      740,
      "I daydream a lot, off the cushion. Why is it important to be mindful at all times throughout the day?"
    ],
    [
      868,
      "How do I control my worrying? How can I note when things get on top of me?"
    ],
    [
      990,
      "How to be aware, and how to note the desire to be liked and the fear of being ridiculed? It seems I am operated by that while around many people, and it seems others are as well."
    ],
    [
      1084,
      "Previously when meditating, I've felt quite intense nausea, which is incredibly distracting. Is there anything I can do to help with this?"
    ],
    [
      1209,
      "Can walking and sitting be alternated multiple times in a session?"
    ],
    [
      1302,
      "I've been doing vipassana for almost a year now, and lately I experience my thoughts a bit different. Like I'm seeing them instead of making them, if that makes sense. Should I note seeing or still thinking?"
    ],
    [
      1387,
      "How best to deal with stress and anxiety while meditating?"
    ],
    [
      1476,
      "I find thinking \"rising\" and \"falling\" useful in the beginning of my meditation, but unnecessary after some time. Can I meditate without the words?"
    ],
    [
      1607,
      "Are you against mantra, or is noting acting as a mantra?"
    ],
    [
      1790,
      "I tend to note too many things very quickly. Should I slow down the noting and take time with each \u201cnoting\u201d to better \u201csee\u201d or \u201cunderstand\u201d what's happening?"
    ],
    [
      1872,
      "Can I stay mindful and uphold the practice during martial arts training?"
    ],
    [
      1974,
      "Why is it appropriate to note concepts like \u201cstepping left\u201d and \u201cstepping right?\u201d Shouldn't we only note the experiences of the six senses?"
    ],
    [
      2100,
      "When I try to sleep mindfully, I find that I cannot get to sleep, even into 2-3 hours of lying completely still. How can I overcome this?"
    ],
    [
      2227,
      "How to note \"sitting\" or \"standing?\" Should we try to feel the whole body?"
    ],
    [
      2304,
      "When I go outside for a walk, how and what should I note or focus on?"
    ],
    [
      2358,
      "I have noticed the sense of meaninglessness becoming very prevalent in daily life. I also have no more interest in socializing or doing anything fun. I don't enjoy life as I used to. Is this progress?"
    ],
    [
      2557,
      "How to stay mindful while missing a partner overseas? Do I let go of desire entirely and, if so, will that not result in the end of the relationship?"
    ],
    [
      2865,
      "When moving the mind to the rising and falling of the stomach, is this a conceptual placement (thought in the mind) or should this be a formless experience?"
    ],
    [
      2932,
      "I used an alarm clock when doing sitting meditation for one hour. Is it better doing it with or without an alarm clock?"
    ],
    [
      3010,
      "Do the words rise/fall matter? Can I just pay attention to the breath without saying any words in my head?"
    ],
    [
      3087,
      "When I meditate and I concentrate on the breath, thoughts come into my mind. Is it best to say \u201cthinking\u201d or \u201cdistracting?\u201d"
    ],
    [
      3152,
      "I did at-home meditation about six months ago with you, and keeping up with my daily practice. Could you offer review at home course\u2019? I feel like that can be helpful for my practice."
    ],
    [
      3255,
      "I tried to read your booklet but my disorder made it very difficult to finish. Is there an audio version? And if not, I\u2019d be very happy if you made one."
    ],
    [
      3308,
      "I am a very busy person with my job. Is there any way I can implement meditation during the time I am working, without interfering too much with my job?"
    ],
    [
      3375,
      "How can I meditate without needing to obtain my desire in the future by being mindful and aware it can lead to disappointment?"
    ],
    [
      3480,
      "Is it okay to undertake actions resulting from craving (eg: sex) or do we have to suppress always?"
    ],
    [
      3615,
      "How to focus on the body when meditating, because always my mind goes somewhere else?"
    ],
    [
      3673,
      "Sadhu..."
    ]
  ]
}