{
  "id": "RH6txg1YqEU",
  "chapters": [
    [
      0,
      "Start"
    ],
    [
      569,
      "Is this [Web site/Q and A/?] only for insight meditation?"
    ],
    [
      809,
      "Physical pain is really difficult to accept. I know that meditation won't get rid of the pain, but how can it help cope with pain? Will it help the pain decrease at some point?"
    ],
    [
      916,
      "How can one practice a Buddhist path while still working and having a family? I find it difficult at times to stay mindful, although I have only been at this for about eight months."
    ],
    [
      1035,
      "Oftentimes I get a terrible headache during meditation. Initially I attribute it to poor breathing or forgetting to breathe. Is this a common experience in beginner practice?"
    ],
    [
      1296,
      "When I meditate, I will focus on the pain that arises, but many times it comes up in multiple places. As a beginner, do I choose one area to focus on, or do I focus on the pain as a whole?"
    ],
    [
      1352,
      "I have been struggling to sleep. When I try, my mind wanders to troubles, and before I know it I'm upset and agitated. Any advice?"
    ],
    [
      1448,
      "All I want to do is meditate when I have nothing to do. Is that an attachment?"
    ],
    [
      1501,
      "Is meditation enough to purify the mind? How will books and dharma talks help?"
    ],
    [
      1634,
      "My views on the world changed after I started practicing meditation and mindfulness and the Buddhist teaching, and sometimes I feel scared and lonely. I meditate to them but I see no clear understanding. Any advice?"
    ],
    [
      1738,
      "Since starting to practice non-attachment, I think about giving up everything and not engaging in society. Is this something I should pursue, or is it better to continue a Buddhist path in society?"
    ],
    [
      2121,
      "Bhante, how can one meditate on insult?"
    ],
    [
      2173,
      "Bhante, how do I see the break, when eye consciousness stops and ear consciousness starts?"
    ],
    [
      2239,
      "How do you deal with someone, in this case a partner, who constantly brings up or questions something over and over again that I have asked her to let go?"
    ],
    [
      2319,
      "How do I find friends in college as a strict olUrorel alicia"
    ],
    [
      2364,
      "I have a troubled past with drugs. I'm sober for a while and practising good things. I have tattoos that represent my past. Are those a problem toward my desire to become a monk after college? Should I just detach from the idea and realise that it's only true in conventional reality, or work to remove them beforehand."
    ],
    [
      2507,
      "How can letting go help to solve problems?"
    ],
    [
      2576,
      "When practicing under a buddhist monk, can one be affected by their teachers?"
    ],
    [
      2722,
      "I was stressed at work today and I felt anger. So I noted \u201cangry, angry,\u201d and it took about 45 mins before it subsided. I was wondering if that was the correct application of noting outside the sitting practice?"
    ],
    [
      2838,
      "I often have vivid music looping in my mind, and during meditation it is like a radio playing next to me. When it's very loud, I try to make it the meditation object without actively adding to it, but it always seems to slip away when I look at it directly. I sometimes feel like a dog chasing its tail. Should I do my best to simply note it and move on?"
    ],
    [
      2937,
      "Bhante, what practice should I do in the last five minutes before dying natural death?"
    ],
    [
      2984,
      "What about old [age], sickness, and death? How should we face them correctly?"
    ],
    [
      3001,
      "Is there any point in being a poet? (serious question)"
    ],
    [
      3164,
      "When I focus on my breath, there is a spirit who I know personally who directs her energy to my heart beat not allowing me to meditate?"
    ],
    [
      3304,
      "I'm interested in joining the at-home course. Is it okay if I use Skype on my mobile phone? Are you following eastern standard time?"
    ],
    [
      3396,
      "How important is the celibacy in the spiritual journey?"
    ],
    [
      3457,
      "How important is it to understand dependent origination?"
    ],
    [
      3501,
      "End"
    ]
  ]
}