{
  "id": "f6X13Ar9Cfw",
  "chapters": [
    [
      0,
      "Start"
    ],
    [
      274,
      "To sign up for at home meditation course: https://meditation.sirimangalo.org/ (link is also in description below)"
    ],
    [
      351,
      "When one hears, \u201cwho\u201d or \u201cwhat\u201d is actually hearing? There is the sound, the ear, and then some sort of \"me\" involved. What is it? How do I investigate it?"
    ],
    [
      581,
      "Can meditation help you find meaning in life? I am feeling lost right now as to why I am here and what to do with my life."
    ],
    [
      785,
      "Is it okay to take time away from noting the present moment to contemplate the Buddha's teachings?"
    ],
    [
      1117,
      "When lifting a foot, we have to have the intention and desire to lift the foot. Is it helpful to note the intention to lift the foot up?"
    ],
    [
      1213,
      "How can I overcome fear? I note \u201cfear, fear,\u201d but my fear is persistent."
    ],
    [
      1338,
      "What does one do when feeling lonely? Can meditation and enlightenment help loneliness?"
    ],
    [
      1509,
      "How does one handle guided meditation? I'm not sure whether to concentrate on the speaker or my breath."
    ],
    [
      1632,
      "Is a 10-day vipassana retreat meditating all day valuable to someone who currently meditates an hour a day? Or is it better to build up meditation time gradually?"
    ],
    [
      1753,
      "How do you know if you are enlightened? I find that I have made progress in my mindfulness, but is there such a thing as fully enlightened?"
    ],
    [
      1864,
      "While being mindful in daily life, suddenly something makes me fearful. How do I avoid coming out of the meditative state? I\u2019m having a hard time staying mindful while sudden or scary things happen around me."
    ],
    [
      2075,
      "Bhante, I find that bad thoughts come more often when not in the meditation session. Would it be of use to actively think of these thoughts during meditation instead of waiting for them to appear to then note them?."
    ],
    [
      2179,
      "Is sitting perfectly still despite pain a more advanced, beneficial mediation, or is it too oriented to physical-endurance?"
    ],
    [
      2424,
      "Can meditation while doing yoga be considered meditation? Could it be a substitute to sitting meditation or does sitting meditation need to be practiced every day as well?"
    ],
    [
      2687,
      "Lately in meditation, I've been getting strong piti, which tenses up my body, and makes me have spasm-like shaking. Any tips?"
    ],
    [
      2796,
      "I know the things I need to do to improve my life, but I find it hard to motivate myself to do these when there are people in my life who I want but are not with me. How do I depend less on others?"
    ],
    [
      2941,
      "At what rate should noting be done?"
    ],
    [
      2966,
      "Can meditation reveal our real self? If so, how much time will it take?"
    ],
    [
      3013,
      "Is there a limit to what we can achieve with breathing meditation? Does \"insight meditation\" go deeper in a way?"
    ],
    [
      3113,
      "Can meditation be unbeneficial?"
    ],
    [
      3197,
      "Some people advised me to get protection if I meditate too much because one may attract \u201cdark energies.\u201d To what extent is this true?"
    ],
    [
      3419,
      "Could meditation alone help you recover from an addiction or mental illness like anorexia?"
    ],
    [
      3643,
      "Are there any other noting terms to be used when coming in contact with spirits? I use \u201chearing\u201d when having clairaudient experiences and \u201cfeeling\u201d when feeling the almost magnetic pull of their touch."
    ],
    [
      3770,
      "End"
    ]
  ]
}