{
  "id": "NUzVCRe8C4A",
  "chapters": [
    [
      0,
      "Welcome"
    ],
    [
      671,
      "Can doing mindful activities such as a mindful shower, mindful yoga, mindful exercise etc. have as much benefits as meditation, if one finds it hard to sit for more than 10 minutes?"
    ],
    [
      846,
      "What would be the best practice, for one who couldn't concentrate properly because of debilitating brain damage?"
    ],
    [
      899,
      "Is it possible to note the sensations of parts of the body even if they are not prominent? For example the arms, elbows, hands, mouth, eyes... Resistance hides in the whole body, so I find it beneficial."
    ],
    [
      1020,
      "How do we verify if we are doing sati or samma sati?"
    ],
    [
      1143,
      "Can the touchpoints be implemented in other postures, such as lying or standing?"
    ],
    [
      1160,
      "I have achieved success in an exam. However, I haven't been able to come to terms with it, and now I'm concerned about the upcoming exam. It feels like a vicious loop. Meditation isn't helping. Help."
    ],
    [
      1362,
      "Does even the rising/falling of the abdomen need to stop being perceived for cessation/Nibbana to happen? When cessation happens, does the noting continue? Is one aware?"
    ],
    [
      1421,
      "Thirty-five minutes into Vipassana, my leg really started to hurt. Despite inquiring on the nature of the pain, I got extremely light-headed, anxious and nauseous, so I had to stop. Any reason for this?"
    ],
    [
      1561,
      "How do we note the cessation of consciousness?"
    ],
    [
      1620,
      "What is the difference between noting the belly, the nostrils, or breathing through the ears?"
    ],
    [
      1659,
      "How do you practice yoga mindfully? Focus on the breath, body sensation? How to know what to focus on when we could focus on so many things?"
    ],
    [
      1734,
      "How to deal with regrets from the past -- just noting? \u201cFear\u201d, \u201csadness\u201d, \u201cregrets\u201d, \u201cworry\u201d, \u201cshame\u201d ...?"
    ],
    [
      1781,
      "Noting the breath is preventing me from correctly seeing what thoughts/feelings I have. It\u2019s as if the noting of the breath was there \u201cabove\u201d the feelings and thoughts I have. Is that good practice?"
    ],
    [
      1844,
      "Any suggestions on how to stay mindful during daily life and not just when meditating?"
    ],
    [
      1885,
      "What to do if you find out your parents have been lying to you for a long time? If simply \u201cforgive\u201d what kind of meditation should I use?"
    ],
    [
      1988,
      "I've stopped and started practicing many times. It is particularly hard when agitated and in pain. Several years into practice, this sense of agitation and pain became more intense. Any advice?"
    ],
    [
      2085,
      "I noticed that defilements such as paranoia started arising again after a long period of not occuring. Is this a sign that my practice has fallen, or just that there are still roots present in me?"
    ],
    [
      2221,
      "When we note \u201cseeing\u201d, do we keep in memory that this seeing is due to contact between eye and object?"
    ],
    [
      2287,
      "What role does a philosophical contemplation play in a wholesome meditation practice?"
    ],
    [
      2394,
      "How do we fabricate and note equanimity?"
    ],
    [
      2440,
      "I find my awareness is more like a series of returns to the present moment, rather than continuous awareness. Is this incorrect practice?"
    ],
    [
      2505,
      "Is a moment where the mind clearly knows an object a moment of Nibbana?"
    ],
    [
      2573,
      "Sadhu..."
    ]
  ]
}