{
  "id": "2X7D2r499oI",
  "chapters": [
    [
      0,
      "Welcome"
    ],
    [
      192,
      "On the topic of... Directions"
    ],
    [
      1786,
      "While meditating, I feel a vibration and tingling sensation on my left scapula / left triangular bone. What does it mean?"
    ],
    [
      1913,
      "Should I note \"sad\", \"anxious\", \"expecting\", or just focus on the raw body sensations of those emotions, such as \"feeling\" and \"thinking\", for the accompanying thoughts?"
    ],
    [
      2011,
      "I see spirits after meditating for some time. I saw even some people who did good deeds are still roaming around their families. What is the way to avoid it and get liberation?"
    ],
    [
      2089,
      "After meditating for an hour, my body feels sleepy and tired. The inertia and sleepiness feels satisfying and permanent. How can this sloth and torpor be overcome in such cases with wrong view?"
    ],
    [
      2358,
      "In meditation, is it okay and not habit-forming to be as angry as you actually are, as long as one stays mindful and doesn't feed it?"
    ],
    [
      2534,
      "I am afraid that meditation will take me away from worldly pursuits. I feel like my family will be very disappointed in me. Should I continue to practice?"
    ],
    [
      2668,
      "I've recently been getting back into meditation, but with my ADHD, it's getting harder to sit still and be mindful of my surroundings. Any tips?"
    ],
    [
      2781,
      "The thought of emptiness from the eradication of my defilements interrupts my meditation. What are your thoughts?"
    ],
    [
      2828,
      "My father is clingy with myself and my siblings. I know the Buddha Stressed the importance of our duties towards our parents. But I still find that appeasing is not the right way to go. Any advice?"
    ],
    [
      3003,
      "Which Mahasi Sayadaw books would you recommend for someone not necessarily a beginner but early on the path?"
    ],
    [
      3087,
      "Does doing wholesome deeds like dana supercharge one's progress to liberation faster? Or does it slow down one's progress because dana itself is creating deeds?"
    ],
    [
      3154,
      "I am going through an intense betrayal and it's making it hard to practice. The anger and sadness and longing is so strong. What should I do? Samatha maybe?"
    ],
    [
      3214,
      "How long should one meditate per day?"
    ],
    [
      3260,
      "You mentioned that pain was not physical. So is pain mental, or what is it?"
    ],
    [
      3368,
      "Many religious texts speaks about \"listening to one's heart\" when taking critical decisions in life. How can we listen to our heart?"
    ],
    [
      3708,
      "If I experienced psychosis and great fear of Samsara from intensive noting, should I push myself to keep noting, Knowing it will come and go, or should I take a short break?"
    ],
    [
      3928,
      "I've been doing Vipassana for a year. Recently, I experienced suffering in every-day situations. I feel uncomfortable and restless. I don't feel comfortable with family. Is something wrong?"
    ],
    [
      4081,
      "Sadhu..."
    ]
  ]
}