{
  "id": "rbi9qEd8QeA",
  "chapters": [
    [
      0,
      "Welcome"
    ],
    [
      48,
      "Meditate Together"
    ],
    [
      603,
      "Can you please elaborate on the mechanism of how seeing clearly cultivates wisdom? I\u2019m not trying to over-intellectualize, I just feel like I\u2019m missing this part of the technique."
    ],
    [
      1211,
      "When my job makes me anxious it is hard to be mindful of this feeling while meditating. I find it unclear and difficult to focus on. Can I help myself see my anxiety more clearly?"
    ],
    [
      1311,
      "Is there an auditory meditation? Listening to every little detail around me makes me feel present and my thinking goes away."
    ],
    [
      1382,
      "When I note an emotion, is it a must to note the exact emotion one feels like \u201cliking or hating etc.?\u201d All this time I\u2019ve just been noting \u201cfeeling\u201d without specifying the type of feeling."
    ],
    [
      1451,
      "How can I rise above my fear of flying? I am flying from Toronto to British Columbia in November, and I am very nervous. How can I use meditation to overcome this fear?"
    ],
    [
      1599,
      "I am sometimes oversensitive to the suffering of others, is there an approach I should use for this experience?"
    ],
    [
      1660,
      "Is something being the \"most prominent\" conceptual? Technically nothing is the most prominent, because only one thing can be experienced at once, right? Maybe I overthink this."
    ],
    [
      1728,
      "Is it possible for an experienced meditator to spend at least 1 minute with no mental noise or thoughts?"
    ],
    [
      1780,
      "Can I use the note overwhelmed regardless of if I'm upset about the overwhelming feeling or not? Sometimes there's a tinge of disliking, others it feels like I'm overwhelmed in the sense a computer is."
    ],
    [
      1843,
      "Is it good to designate notings for certain experiences so you don't have to think about it in the moment? Or is that antithetical to noting things as they strike you or is it too obsessive?"
    ],
    [
      1960,
      "Can a Sukkhavipassaka (yogi who performs vipassana only) attain the Phala (the fruition)? How is the consciousness process of it?"
    ],
    [
      2145,
      "How to deal with negative and hurting people?"
    ],
    [
      2215,
      "I want to be happy. Is this a realistic wish?"
    ],
    [
      2337,
      "What is the root cause of compulsively seeking mental stimulation?"
    ],
    [
      2388,
      "How do you know which meditation objects suit you best?"
    ],
    [
      2456,
      "Since I started practicing this meditation, my confidence regarding intimacy with women has decreased a lot. Is there a way to balance lust and spiritual progress?"
    ],
    [
      2546,
      "My family tends to trigger huge anxiety and worry in my mind, it gives me enormous pain and confusion as I do love them dearly. How can I work on this issue to help free the mind and heart?"
    ],
    [
      2611,
      "My mind feels very fuzzy. I sit down to meditate but just feel distracted. I used to have OK mindfulness. Can I ever get back to that state?"
    ],
    [
      2701,
      "Can a person want something without desiring it (there is no longing for it but rather a preference for it)?"
    ],
    [
      2775,
      "Should we ever structure practice towards investigating particular fetters? For instance, should a Sotapanna practice differently from an Anagami?"
    ],
    [
      2814,
      "Since I am on a new medication for schizophrenia, I have problems with meditation. It's harder to see clearly. Should I go back to just old medication?"
    ],
    [
      2884,
      "What does the Nirvana state actually feel like?"
    ],
    [
      2899,
      "What is it called to be content with what you have; to not desire more?"
    ],
    [
      2938,
      "My house has lots of insects. My wife wants me to call pest control and get the house and the surrounding area to be sprayed. I would like to know if this would have a negative impact in terms of karma."
    ],
    [
      3029,
      "Do you think the blissful nature of deep conscious presence to be quite intoxicating? And the pursuit of presence through meditation to be addictive?"
    ],
    [
      3094,
      "Are marital sexual habits positive or hurtful for meditation? Does constant release of sexual energy decrease ability to focus?"
    ],
    [
      3209,
      "There seem to be parts of my mind that are resistant to sensations arising one after the other during meditation. I feel I can't control that. Is there anything that I should do besides keep noting?"
    ],
    [
      3279,
      "When the Buddha said something to the effect of \"don't concern about the specifics\" does that effectively mean noting broad and general?"
    ],
    [
      3334,
      "If a doctor is asked to end a patient\u2019s life by the patient due to extreme suffering and incurable illness like a cancer, would that be bad karma for the doctor to perform the duty?"
    ],
    [
      3549,
      "Is \"trying\" an adequate noting? I.e. trying for happiness, to change experience in some way, etc. Are wanting, disliking, etc. better?"
    ],
    [
      3606,
      "Sadhu..."
    ]
  ]
}