{
  "id": "9RHQLzM4zpo",
  "chapters": [
    [
      0,
      "Meditation Q&A"
    ],
    [
      50,
      "Meditate Together"
    ],
    [
      1045,
      "Should one note \u201cdistracted\u201d or the experience which one is distracted by...for example an image that arises in the mind. Should I note \u201cdistracted\u201d or \u201cseeing\u201d?"
    ],
    [
      1078,
      "How to note thinking while not interrupting my thoughts? I use my mental voice to think, but when noting my thoughts I also use the same mental voice, so it interrupts my thoughts. Any advice?"
    ],
    [
      1152,
      "Is noting \"aversion\", \"laziness\", or \"procrastination\" too vague? If it's an activity that hasn't happened yet, \"disliking\" doesn't seem appropriate. For example, having to study, wake up from bed, take a cold shower, etc."
    ],
    [
      1192,
      "How long should practice sessions be? Is there a minimum or maximum limit? I was wondering how many sessions I should do to cover 2 hours of practice."
    ],
    [
      1330,
      "Sometimes distraction arises so rapidly that I don't get to note it, I do only notice when it's already gone. How should I try to note this and do you have advice on maintaining concentration?"
    ],
    [
      1434,
      "I made my mother suffer when she was alive, and I now feel guilty. How can I remedy this matter?"
    ],
    [
      1519,
      "What is the difference between noting and focusing on your breath?"
    ],
    [
      1771,
      "How does one better deal with jarring experiences during meditation? I was stung by a hornet during walking mediation and the feeling of pain, aversion and reaction to get away seemed to arise all at once."
    ],
    [
      1860,
      "Should the mantra always be an adjective?"
    ],
    [
      1925,
      "When you note an object of experience, such as thinking or a state of doubt, is it still proper practice to then return back to your abdomen rising and falling?"
    ],
    [
      1970,
      "How can meditation practice help one overcome states of addiction particularly to internet and pornography, which are too easily accessible today?"
    ],
    [
      2332,
      "What is the physical aspect of a reaction, such as liking or disliking? If a reaction, like disliking, arises after an experience like pain, should the mind remain sent out to where the pain was?"
    ],
    [
      2371,
      "If the self is an illusion, what \"moves\" me?"
    ],
    [
      2398,
      "A question which has been really frustrating me is what caused desire to arise in the first place? Why would desire just arise a long long time ago (before this life)?"
    ],
    [
      2470,
      "I wish to ordain more than anything, but would it be wrong for me to leave my home and do so if I feel as though I would neglect the duty of a householder that my forefathers left salons"
    ],
    [
      2665,
      "If meditation is pure noticing and noting, how will I meet insight? Since I believe it will require some active thinking, should I journal my meditation sessions after the practice?"
    ],
    [
      2818,
      "How can I be more indifferent towards suffering without being gloomy?"
    ],
    [
      2968,
      "Is keeping reminders to be mindful throughout the day around you and in your phone as wallpapers and notifications beneficial generally?"
    ],
    [
      3101,
      "What are some techniques for overcoming catastrophizing the future?"
    ],
    [
      3161,
      "Is there an awareness separate from the 6 objects of consciousness? Does it arise in dependence upon the 6 objects or can it exist independent from them (for example, pure awareness)? Or is awareness the 6th?"
    ],
    [
      3323,
      "Did the Buddha ever advise against having children? They can be an obstacle to practice but they can also create a good practice of giving and creating more opportunities for human vessels for dharma."
    ],
    [
      3529,
      "Can this practice be a hindrance alongside other spiritual practices?"
    ]
  ]
}