{
  "id": "YJetZIzmijo",
  "chapters": [
    [
      0,
      "Welcome"
    ],
    [
      59,
      "Meditate Together"
    ],
    [
      953,
      "I am trying to let go of an ex-partner who left me and I am able to locate a strong pain in my chest when I try to let go."
    ],
    [
      1165,
      "I took a break from formal meditation practice and now find that there is a lot of resistance to starting again. I always tell myself I'll start tomorrow but never do. Can you please give advice?"
    ],
    [
      1277,
      "When the mind moves to its object during noting, that union of mind and object can be shallow or deep. Until the next object arises, is it beneficial to try to dwell more deeply with the object?"
    ],
    [
      1365,
      "I meditate but more in the moment than in a designated time. Is this appropriate? I also find that in the moment, I need the peace of meditation the most. Is this acceptable?"
    ],
    [
      1602,
      "How should we deal with holiday distractions while meditating?"
    ],
    [
      1752,
      "I always used to experience severe anxiety when I am around people. During meditation I'm able to note my anxiety to some extent and it helps me calm my nerves. When I am in actual social situations, I am not able to note my anxiety like I do while meditating and my body and face reacts wildly announcing my anxiety to others. Do you have any advice to help?"
    ],
    [
      2043,
      "Even though I understand the wisdom and can see things clearly, I still keep making the bad decisions for myself, falling into pleasures, addiction."
    ],
    [
      2243,
      "I heard that when one gets deep in meditation practice, one's past karma can bear fruit. Does this mean there may be events in the world that come about from meditation or are worldly events unrelated?"
    ],
    [
      2344,
      "I do walking meditation in the forest, and I know that I am killing ants because I am not looking down. Now I feel remorseful because of killing. Should I always look down when I walk in nature?"
    ],
    [
      2443,
      "Is there a time table when a human passes on and reincarnates?"
    ],
    [
      2522,
      "Buddhism takes a perspective of experiential reality, not one with concepts. If the body is just a concept, then shouldn't it be fine to kill?"
    ],
    [
      2720,
      "Sometimes disliking arises but I'm not exactly sure what thoughts triggered it, which triggers more curious thinking. Is it important to map out exactly what thoughts triggered the disliking?"
    ],
    [
      2787,
      "When trying to cultivate clear comprehension itn daily life, is there any advantage to retaining a peripheral awareness of the breath when doing actions like studying Dhamma?"
    ],
    [
      2880,
      "Can enlightenment bring about Supernormal powers (abhinna) developed in previous existences?"
    ],
    [
      2956,
      "What are the consequences of speaking untrue words without harmful or serious intent?"
    ],
    [
      3146,
      "Should we stay in the city and work with defilements within distractions (noise, people, work, etc.) or go to the forest secluded with better conditions? Ultimately, is there any difference?"
    ],
    [
      3296,
      "According to Buddhist view, do we know if AI has the potential for consciousness? This is a practical question, what if it's a possible rebirth?"
    ],
    [
      3503,
      "When I learned about the 12 links I was surprised to see that consciousness results from ignorance. Is there a positive view of consciousness that householders can have?"
    ],
    [
      3630,
      "Sadhu..."
    ]
  ]
}