{
  "id": "s3rUYAPD2gc",
  "chapters": [
    [
      0,
      "Meditation Q&A"
    ],
    [
      68,
      "Meditate Together"
    ],
    [
      942,
      "Every time I say the mantra in my head, I also say it somehow with my breath so I can't recognize the object and my focus goes automatically on the breath. Do have any advice?"
    ],
    [
      1106,
      "A result of the practice is disinclination from foolish people. How do I explain to family and friends that I can no longer see them? I'm no longer cultivating this attachment, but I am still bothered by them."
    ],
    [
      1420,
      "Should I limit my practice so as not to be unable to support myself and stay alive in the world?"
    ],
    [
      1526,
      "Among the four satipatthana objects, does the choice of object matter, and is one more advantageous to focus on?"
    ],
    [
      1625,
      "I suffer from the addiction of food, pornography and distraction, yet knowing this doesn't prevent me from doing it, the compulsion does not meet any resistance. Is meditation powerful enough?"
    ],
    [
      1902,
      "When seeing, can one label it as \u201cseeing\u201d without trying to label what is being seen?"
    ],
    [
      1951,
      "In sitting meditation when I notice that I have drifted away in thought, but can't remember if this happened from the breath or after noting a sensation, do I go to the breath or do I note \"thinking\"?"
    ],
    [
      1983,
      "When one loses their \"oomph\" in practice and wants to get back into it, what is the best way to find meditation delightful again? What would be the best way to long-lasting happiness?"
    ],
    [
      2200,
      "Must we let go of all narratives (stop cultivating the thought patterns)? Or is there room for a \"conventional self narrative\" ?"
    ],
    [
      2268,
      "I've been told not to shy away from unpleasant sensations in practice, but often I react immediately and then cannot find the sensation again after I resume noting. Any advice?"
    ],
    [
      2332,
      "When indulging in bad habits that are highly stimulating like pornography, my mind seems to completely change for a while and I can't seem to be mindful anymore. Any advice or practices for it?"
    ],
    [
      2508,
      "What are the basic steps to teach children medition in world of social media?"
    ],
    [
      2561,
      "If I label something without it triggering new thoughts, does that mean I am doing labeling correctly?"
    ],
    [
      2655,
      "When I wake up, my mind is very unified and centered and settled. But after some time, I lose that state. What is a good way to unify the mind again?"
    ],
    [
      2814,
      "How can we bring the awareness of meditation with us throughout the day after we have finished our session of meditation in the morning?"
    ],
    [
      2915,
      "When someone speaks to me with rudeness, it makes me immediately react to it with a rude reply back. How do I get rid of this, as I am tired of not being able to stay composed when people are rude?"
    ],
    [
      3106,
      "I want to continue in the five precepts and work without distractions to improve my family's bad financial situation. Are there unseen beneficial Devas or psychic phenomena that help people do this?"
    ],
    [
      3287,
      "I feel thoughts are something that come and go automatically without any effort. But when I start to notice the thoughts, I feel like I'm clinging to it and not letting it go. Any advice?"
    ],
    [
      3361,
      "Is Nirvana an experience in meditation?"
    ],
    [
      3412,
      "Is it dangerous to listen to other religious teaching such as Christianity? It seems like Christianity is teaching the same thing but just uses a lot of metaphors for the battles we\u2019re facing."
    ],
    [
      3550,
      "How do I act when someone rants about something and seeks my understanding? If I sympathize, it's like acknowledging their anger. It feels dishonest to do so because I know anger in any case is harmful."
    ],
    [
      3762,
      "Sadhu..."
    ]
  ]
}