{
  "id": "VLCLIjnccBg",
  "chapters": [
    [
      0,
      "Meditation Q&A"
    ],
    [
      127,
      "Meditate Together"
    ],
    [
      937,
      "I'm thinking of stopping the use of supplements that decrease my depression and improve my mood and focus. I want to do it as a way to give up a need to control my mood. Can this help with gaining a right view?"
    ],
    [
      1058,
      "Is just ten minutes of meditation a day better than nothing?"
    ],
    [
      1172,
      "To what extent can (or should not) a novice meditator use guided meditation to retain alertness, awareness, and concentration? If so, is there value in having someone or something remind one \"often\"? Is it part of the practice to recognize loss of awareness and return to it without external intervention?"
    ],
    [
      1438,
      "Is meditation in public recommended - as in a park, for instance?"
    ],
    [
      1488,
      "The 5th precept seems kind of vague. Should we refuse opiate pain medication? When we seperate bodily pain from suffering, is it even necessary to not avoid physical pain?"
    ],
    [
      1656,
      "I suffer most from distractions during meditation, either walking or sitting. What can help to maintain focus?"
    ],
    [
      1857,
      "What do I do if, while practicing your meditation technique, I get vivid sensations of a flow or energy in the body, or if I get vivid visions? These make it hard to feel touching points in the body."
    ],
    [
      1931,
      "If one took the at home meditation course and practiced a long time afterwards with the touch points, would it be beneficial to keep adding more touch points to continue to strengthen meditation?"
    ],
    [
      1977,
      "Why is thinking so much more difficult to note than most other things? Any tips for this?"
    ],
    [
      2081,
      "I want to stop my bad habits, but every time I try, my mind becomes too engulfed with craving. I try to be mindful, but after a few moments the craving builds and I eventually indulge. Do you have advice for this?"
    ],
    [
      2281,
      "While noting sensations as pleasant during meditation, how to become 100% sure that I am not generating even a small quantity of craving or clinging for them?"
    ],
    [
      2387,
      "As I\u2019ve researched on globalism, I came to the understanding very dark times are coming. Is it a duty to spend more time researching to try to warn people? Or is my sole duty to get free from suffering?"
    ],
    [
      2699,
      "When practicing mindfulness, I get hesitant when referring to the Visuddhimagga for guidance since it is only a commentary and not as authoritative as the Suttas. To what extent can I trust it?"
    ],
    [
      2943,
      "Is it safe to say that liking is more dangerous than disliking? Is liking the want to go towards and keep an idea, thought, or feeling, and is disliking the want to get away or get rid of it?"
    ],
    [
      3028,
      "Meditation is making me lose interest in things. Sometimes I feel like just sitting without doing anything and being in the moment, observing without needing anything. Am I being lazy due to mindfulness?"
    ],
    [
      3202,
      "How should I take if someone says they dropped the Buddhist texts that we accept (Visudhimagga, Abhidhamma, Suttas etc.) thinking these are \"poisonous\" to mindfulness practice? Should I not get involved or should I say something? How can something like this happen to people who were very into Buddhism for years?"
    ],
    [
      3474,
      "Can the mind be tired or is only the body tired?"
    ],
    [
      3526,
      "What are the benefits from meditating?"
    ],
    [
      3617,
      "Sadhu..."
    ]
  ]
}