{
  "id": "xhfARMwJxtc",
  "chapters": [
    [
      0,
      "Welcome"
    ],
    [
      77,
      "Meditate Together"
    ],
    [
      951,
      "When walking meditation becomes too mechanical, preceding each noting step with \u201cthis is\u201d (this is lifting, etc.) seems to help with staying present with each sequence, as it reminds one of the movement and also creates space between each noting object (beginning/ending). Buddha said \u201cwhen walking, know that you are walking\u201d or this is walking. Any thoughts on this?"
    ],
    [
      1184,
      "When I am noting \"rising and falling\", my attention would be on the sensations of my abdomen, while at the same time I am aware of sounds or thoughts. Is there a difference between attention & awareness?"
    ],
    [
      1288,
      "When talking, what do you note: talking or hearing -- and do you note at the same time while talking?"
    ],
    [
      1370,
      "Does it matter how long one waits after they eat to meditate?"
    ],
    [
      1441,
      "When we practice (lifting, moving, etc.), does intention come before action and action before noting, even though they appear simultaneous?"
    ],
    [
      1534,
      "I feel like often times I do noting without really being mindful of whatever has arisen. Like I say \"pain, pain\", but I'm just saying it. Any advice on this?"
    ],
    [
      1612,
      "How does one stay consistent in daily meditation and daily mindfulness?"
    ],
    [
      1649,
      "Can you please give advice on how to sit cross legged longer? I can barely sit for 5 minutes before I get leg and back pain."
    ],
    [
      1845,
      "Does listing fake experience in a job application break the precept against false speech?"
    ],
    [
      1948,
      "Nothing exists except experiences caused by karma. Experiences continue on over moments/lifetimes when liking/disliking continue. This creates the illusion of an individual ego/self, moment by moment. Is this correct?"
    ],
    [
      2090,
      "When we die, should we \"go to the light\", or should we just note \"peace\"?"
    ],
    [
      2178,
      "Sometimes my mind feels like it \"freezes\" and I have no thought and am unable to note in that moment, except only that I'm awake. What is happening in that moment? What should I note after this experience?"
    ],
    [
      2316,
      "If a person has brain damage from a car accident, they may lose the ability to hear if the hearing center in the brain is impaired. Doesn\u2019t this show that the mind is dependent on the brain?"
    ],
    [
      2442,
      "How can one get consistent with the Buddhist practice? Like the Dnamma, courses and meditation? I made a commitment to do so this year but unfortunately I lost track of it and now I'm all lost in life."
    ],
    [
      2593,
      "Are the \"pull outs\" during the second day of Determination meditation, the fruition?"
    ],
    [
      2629,
      "When noting, does each sensation arise one at a time but our attention is too slow so it looks like sensations arise simultaneously?"
    ],
    [
      2728,
      "What should I do when meditating and sexual thoughts arise? Do they appear because we somehow take pleasure in them but are not aware of it? Or is it connected with masturbating in the past?"
    ],
    [
      3194,
      "I have started thinking that since I, and most other people, are defiled, it is safest to stick to oneself and engage as little as possible with others. Is this a good mindset?"
    ],
    [
      3358,
      "You can\u2019t be aware of two things at once, but isn\u2019t an arahant always aware of nibbana no matter what they do? Does this mean we have to try to develop this with our practice, or is it just a result?"
    ],
    [
      3388,
      "I practiced meditation two days in a row (15 minutes walking and 15 minutes sitting) according to the booklet. Lately, it seems to be making me more angry. Is this normal to feel angry? Should I persist?"
    ],
    [
      3524,
      "Why are some destined from early years to traverse many different paths before reaching the authentic one, or not at all? The experience seems to help with identifying genuine teachings, but sometimes hopelessness sets in and the search Is abandoned. Achieving the end goal becomes less likely in later life, with less time and energy available. Any thoughts on this?"
    ],
    [
      3626,
      "In meditation, I sometimes feel like I'm having an \"insight\", but I am not sure if it's just thinking. How do I know if I'm actually realizing an aspect of reality or just understanding it intellectually?"
    ],
    [
      3914,
      "Sadhu..."
    ]
  ]
}