{
  "id": "LOPST0pOrN8",
  "chapters": [
    [
      1806,
      "Bhante, yesterday you referred to a lazy, tired, exhausted mind state possibly coming from too much concentration and not enough effort while explaining sloth and torpor ... i didn't quite get this, my surface level understanding is that more effort could also actually lead to exhaustion and high concentration would take effort, not lack it... is it possible to go over this once again please ...Thank you."
    ],
    [
      2152,
      "Bhante, what would be a nice Buddhist salutation for English Buddhists? Over here we commonly say \"Theruwan Saranai!\", but the translation: \"May the noble triple gem be your refuge!\", sounds a bit too long."
    ],
    [
      2214,
      "How much should one practice the 4 supportive meditations (in your tradition)."
    ],
    [
      2233,
      "In walking meditation I sometimes slightly lift my left foot before I finish noting the stepping of my right foot. I do this because it feels natural in the way I shift my weight to prepare to step forward. Am I correct in thinking that this is bad technique? Or is it overthinking? I keep trying to not slightly lift my opposing foot before the finish of \"step-ping,\" but what results is an awkward slow walking from a slightly leaning back position, is this more correct?"
    ],
    [
      2309,
      ":question: sometimes more than one hindrance comes up in meditation, should I note the clearest one until it is processed, then go on to the next clearest one that occurs during that moment? Thank You for your guidance ."
    ],
    [
      2398,
      "Good evening Bhante, If one has realized that there is nothing worth clinging to in life and is now only motivated through selfless interest like easing the suffering of others - do you think it would be wise to move towards becoming a Buddhist monk?"
    ],
    [
      2482,
      "Dear Bhante does the type of food we consume has an effect on our mind and then on our meditation. Thanks."
    ],
    [
      2554,
      "What if someone who is a female cheated on her partner in sexual misconduct, will she be born in hell like Queen Malika ? Let's say she was already no longer with the person she transgressed and that has refrained from dishonesty in relationships."
    ],
    [
      2801,
      "Bhante, I have been thinking a lot about becoming a monk. I am a transgender man. Do you know if any monasteries, at least in the US, would be accepting of me? Thank you."
    ],
    [
      3523,
      "hey iv read that celibacy is a need to attain liberation and enlightenment,and also that celibacy increases ones will power and vigor is this true?"
    ],
    [
      3679,
      "Hello I have been a theistic satanist for 6 years but I like to live my life by the tenets of laveyan satanism to a point but I also like the teachings of buddha. Is there a way to practice both ways to live by with out sacrificing self preservation or the selflessness of buddhism?"
    ],
    [
      4508,
      "Have you Knowledge about Meditation for Children - How to Help Children holding right view without ability of understanding?"
    ],
    [
      4626,
      "Hi Bhante, I recently watched a video of a Sikh explaining that during meditation he experiences numbness and a tingling sensation at the top / back of the head, and that this region acts as a gateway to the divine. Do experienced Buddhist meditators experience this physical sensation too?"
    ],
    [
      4675,
      "dear bhante do you know of any buddhist enlightened beings can i can read about,i have already read the story of milarepa."
    ],
    [
      4798,
      "Do buddhists have experiences of universal consiousness?"
    ]
  ]
}