{
  "id": "iQu7FAGD8D8",
  "chapters": [
    [
      1423,
      "In the Chachakka Sutta it talks about the eye and visible forms not being self because they arise and cease. I can see how eye consciousness arises and ceases but it seems to me my eye arose while I was in the womb and will not likely cease until after I die. And some visible forms, say a rock, have been around many thousands of years. Many material objects I won't observe arising or ceasing in my lifetime. So how is it possible to see these things as impermanent and not-self then? And sort of related to this, are the eye and internal eye base the same thing? You mentioned they were different in a previous answer but I didn't understand that difference."
    ]
  ]
}