{
  "id": "gI18EqCN5RQ",
  "chapters": [
    [
      334,
      "I disagree when you said about it being ok to eat or use animal products since the animal is already dead. If humans were raised on farms and tortured and killed and made into food for other humans to eat would the same thought that dead is dead make it Ok to eat them? Aren't we as Buddhist supposed to treat all sentient beings as equal and worthy of compassion?"
    ],
    [
      441,
      "In Wednesday's Q&A, you stated that fear is anger based. I cannot see this very clearly for myself, so could you explain this chain of causality a little bit more in depth? Also, who is in the picture next to Mahasi and Ajahn Tong on the bookshelf behind you?"
    ],
    [
      526,
      "Does loving-kindness/compassion/empathy come naturally with the practice? or does one need to cultivate them separately?"
    ],
    [
      688,
      "What is the exact and original meaning of the four pairs of noble disciples? \"The stream-enterer, and one practising for the realization of the fruit of stream-entry etc etc.\". Bhikkhu Bodhi seems to say that there is the sotapanna and there is the one who has entered a path leading irreversibly to the stage of sotapanna. But wouldn't that mean one could be noble disciple before seeing nibbana? Some people seem to think that after path knowledge it could take days (instead of a single moment) for fruition knowledge to arise. But wouldn't that be complitely contrary to the techings? Only explanation that makes sense to me is that \"the one practising for the realization of the fruit\" means that one has already attained the fruition but is practising to master the fruition. People seem to have different ideas."
    ],
    [
      926,
      "How to deal with torpor (th\u012bna) during meditation? I'm not sleepy or dull at all but the problem is that the mind has no energy to focus on the rising and falling of the abdomen. I can sit on this state for 5 minutes or 1 hour doesn't matter because there is no awareness."
    ],
    [
      1010,
      "hello.i often go through this depression that everything means nothing,especialy after reading up on dropping of the ego.once you drop your ego 'you' disapear how could this be ultimate happyness?its just like a death?"
    ],
    [
      1083,
      "How do we ease the fear of death, worry and anxiety? Recently I have been struggling with some health issues."
    ],
    [
      1170,
      "Venerable, should one not find defilement's abhorrent and have an aversion to them? It seems like sometimes teachings tell us nothing is better or worse, it just is. The more I study the Dhamma and try to stay with the precepts I do not feel it is ok to have certain things in my life. Is this wrong somehow and I should just accept moral mediocrity?"
    ],
    [
      1239,
      "Having first hand see ufos (not spacecrafts or anything physical but highly coordinated lights patterns) and having friends who also have seen them, what is the buddhist take on them, are they devas in some form?"
    ],
    [
      1262,
      "Any tips when the legs fall asleep during sitting practice? I try not to change positions if there is pain in other parts but is it problematic to straiten them out and continue until I can cross them again?"
    ],
    [
      1307,
      "My work involves national defense. While I don't build weapons, I do contribute to systems that are used on weapons. Am I on the path in this regard?"
    ],
    [
      1601,
      "The Pyrite of this world has lost it's luster,some attachments keep me bound, 67 years old, is there anything I can do to increase my chances of becomming a monk in a future incarnation?"
    ],
    [
      1694,
      "What are defferents between 5 precept and 8 percept"
    ],
    [
      1724,
      "Blessings Yuttadhammo, thank you for sharing your compassion and insight. I do have a question for you, Do you think that the Buddha intended to have his experience of Truth and his teachings to develop into what we call Buddhism? Or do you think that he just decided to become a wandering Kshatriya ascetic (Hindu Mediator Caste) that dedicated himself fully to the Truth and became liberated thru Dhyana or Vipassana? Not that it is of much importance, I am just curious as to what your thoughts are on the subject. Thank you Yuttadhammo, for all that you do. Much Love\ufeff"
    ],
    [
      1748,
      "Is it a desire to want to stay in formal meditation?"
    ],
    [
      1760,
      "It is said that from the 4 Jhana the breathing stops. Is it serious? How is this possible physically or biologically? Did you hit someone who actually did not breathe any more? Thank you, Bhante."
    ],
    [
      1777,
      "I've been practicing for a few months now and believe to have made good progess. I recently took a medication (called vitamin d2) prescribed by my doctor after having a blood test and appearing to be a little low in Vitamin D. I didn't think taking this would be a problem to my meditation practice as I was feeling fine before I went to see the doctor, and also didn't think a vitamin medication to have the same effects as say an anti-depressant would, but after taking my second dose for the second week I find it almost impossible to be mindful. I do think I was overmedicated. Anyway, instead of being able to develop concentration which was easily done before, I find myself getting drowsy and feel weak and somewhat agitated overrall. Should I stop meditating until I'm completely off the medication, or should I continue to meditate thereby not seeing these states as problems but as part of the practice?"
    ],
    [
      1826,
      "Can we really love someone, if they are all an illusion? It's like love never leaves us... to be able to find another being."
    ],
    [
      1858,
      "Besides positive brain changes, can meditation change the psychical body in any other way?"
    ],
    [
      1871,
      "does everything we want or want to achieve is just an avoidance we create to distract ourselves from the peace of being just by ourselves in the moment?"
    ],
    [
      1932,
      "My question is praying to Buddha is a concept I think because he doesn't exist in any where because he attanted Nirvana so he is finished as per my knowledge please help me to know"
    ],
    [
      2003,
      "I notice that when I am in a new place with with new people, (for example, in a classroom full of new schoolmates), that I tend to tense up, my breathing becomes more shallow and my energy drains. Is there anything I can do in meditation to help alleviate this anxiety? How about some strategies to manage it? Thanks Bhante"
    ],
    [
      2067,
      "I am afraid of giving someone my full attention. The reason is usually I become too intense and my gaze becomes too strong and I am afraid of scaring (my teacher) them with my attention. I am also scared that they may abuse my attention. How do I maintain this concentration but be more relaxed and less intense?"
    ],
    [
      2101,
      "I find your videos very helpful. However, I\u2019m realizing that my thirst for guidance is turning into a distraction from undertaking mediation \u2013 both formal and \u2018daily\u2019. Any tips to balance learning from external sources (i.e. your videos / studying texts) vs. learning from oneself (i.e. formal meditation)?"
    ],
    [
      2167,
      "Can long-term meditating help alleviate deeply rooted defensive mechanisms?, such as social anxieties brought about by childhood conditioning. Where do you think therapy is more helpful for people? thank you!"
    ],
    [
      2199,
      "will your book \"How To Meditate II\" appear in German? Thank you."
    ],
    [
      2241,
      "Hi, I don't know what happened but I start to scare to meditate, and I start to hate myself without any reason. It didn't happen to me before even I tried to remind myself where I am? Any idea what is going on?"
    ],
    [
      2345,
      "Bhante, I saw a video of Venerable Ajahn Maha Bua, who was considered a living arahant, as he said tearfully, that the world is a heap of garbage, that our world is worse than the dirtiest toilets and that we have to wake up. I do not get rid of the feeling that Buddhism, or especially the Theravada tradition, is very pessimistic or even nihilistic, how do you see that?"
    ],
    [
      2442,
      "bhante as far as I understand there is nothingness. we have no soul. so what \"part\" of us rebirths into a new life?"
    ],
    [
      2490,
      "I have a hard time understanding what is \"spiritual in therevada or am I missing something?"
    ],
    [
      2527,
      "hello\ufeff Bhante. Can I ask a question regarding my meditation? I get a lot of bliss and \"buzzed out\" feelings when I do samattha meditation. Should I just sit with this or should I change my approach? It happens quite easily and is very enjoyable."
    ],
    [
      2587,
      "I'm often criticized for being too quiet, from a Buddhist point of view, is this something I should try improve on, be more talkative, for the sake of not causing discomfort to the people around me ?"
    ],
    [
      2879,
      "Thank you for the previous answer. Do you think spiritual figures like Mooji are worth listening to?, I find his videos to be a great source of motivation on the path."
    ],
    [
      2900,
      "Can you give some information about relationship between Buddhism and old Hinduism"
    ],
    [
      2975,
      "hey this may be off topic but what time is it at the moment were you live?"
    ]
  ]
}