{
  "id": "sNQrRmBN01A",
  "chapters": [
    [
      79,
      "Dear Bhante, If a lay person becomes aware of a monk acting very strangely, (in this case posting extensive statements online implying that members of a particular religion have poisoned and sickened him and many, many others), what is the right thing to do? Would it be to do nothing and let this situation play out as it will? Or would it be better to attempt to bring some attention to the situation out of concern for the monk's well being as well as concern that what he's posting may add fuel to an already tense ethnic situation and give people wrong ideas? Does the monastic sangha have a policy on mental illness? Could a (forest) monk be forced to disrobe if he is mentally unstable?"
    ],
    [
      698,
      "Dear Bhante, How am I behave if I meet close relatives. They tell me many times that i talk so little. But for me its just that I dont feel the need to join their chatter about other people and stuff that doesnt really concern me. But I dont want to tell them because it would hurt them. Is it enough to just be mindful about it and still dont speak. Or should I participate and just being carful about right speech. Thank you!"
    ],
    [
      902,
      "yuttadhammo bhikkhu ! while, say, reading a book, what should we be mindful of ? and how should we incorporate the four satipatthana as well, while reading ? thanks !"
    ],
    [
      967,
      "Venerable Yuttadhammo ! I often feel a desire to express frustration, dissappointment, or anger at my fellow loved ones or friends because i feel as though it conveys the actual magnitude and importance of the situation. It is strange, because i think i see clearly its arising and ceasing, but i sometimes feel it is my preferred method of choice still, rather than keeping silent. How can we reconcile with this... it's as though the anger carries with it a certain amount of wisdom that i don't want to get rid of. If i don't say anything, If i genuinely feel that there is a wrong in the world, how else can we express ourselves to convey that wrong to others ??"
    ],
    [
      1162,
      "Hi, R-Jarn Yuttadhammo, I'm Thai, Buddhist, I recently develop VR application that some how similar to \"second life\" application, but even more immersive. I found R-Jarn's delightful voice and Buddhist knowledge perfectly fit with my application. I would like to ask R-Jarn if you are interested to become our moderator(Talking about Dharma in general). If you still live in Thailand, we would like to visit you and show our VR-Demo to you, if not, please give us an email, we will send you our demo video."
    ],
    [
      1379,
      "In your booklet, Ch. 1, you state: \"we likewise recognize each emotion for what it is, \u201csad, sad\u201d, \u201cfrustrated, frustrated\u201d, etc., and see clearly how we are causing suffering and stress for ourselves by encouraging these negative emotional states. Once we see the negative results of anger, we will naturally incline away from it in the future.\" Regarding the passage, particularly starting with the \"see clearly how we are causing\" part, should we consciously be aware of the \"causing\" and \"results\"? I feel if I do not actively acknowledge that an emotion caused a result, I will not see it. I feel that just noting \"sad, sad\" doesn't necessarily allow me to see the cause and result of things, but instead just diminishes the sad feelings. If we are to actively acknowledge cause and effect, how are we to do this correctly?"
    ],
    [
      1545,
      "Hello Bhante, There was a time when you gave talks every night, and always seemed to include the most important things into them, even if the topic didnt seem to allow that. I think those talks had the power to keep almost everyone on the path. Have you thought about going back into doing that?"
    ],
    [
      1588,
      "Dear Bhante, I just listened the new Dhammapada. When I read the verse previously, I understood it as referring to a person who does not believe there is an afterlife or never thinks about an afterlife. But from your translation I understood it as referring to a person who (probably) understands there is an afterlife but has ruined it. Is it clear how the verse should be interpreted, or is there some ambiguity? Thank you."
    ],
    [
      1720,
      "According to Buddhism, are we allowed to lie to save an innocent person\u2019s life?"
    ],
    [
      1772,
      "Dear Yuttadhammo, Can meditation alleviate anxiety, mood disorders, and/or depression? I began experiencing these for the past 7 years. At age 20, I looked for help from guided meditation CD's from the library. It might have not been formal meditation, but it's all that I have been educated of. The guidance did help me calm my mind of racing thoughts, as well as bring acknowledgement to thoughts I knew to be absent. After the CD completed, I would journal reflectively and thoughtfully on the thoughts I had throughout meditation. I was having a lot of negativity. Journaling allowed me to think about what I was really experiencing, and rephrase the negative language with a more neutral perspective. My mistake was to have ever stopped the practice. I feel out of tune again, but also out of control. Was I using meditation correctly? Whatever I was doing seemed to help. How can I make meditation a habit?"
    ],
    [
      1806,
      "Sadu! how can one move beyond s\u012blabbata-par\u0101m\u0101sa?"
    ]
  ]
}