{
  "id": "LnB93-gFnmw",
  "chapters": [
    [
      454,
      "When is one ready to be without a teacher?"
    ],
    [
      537,
      "What distinguishes neither perception nor non perception from cessation?"
    ],
    [
      596,
      "What is the difference between the meditation style of Ajahn Chah vs the style of Mahasi Sayadaw?"
    ],
    [
      1372,
      "Namo bhante, do we have free will if so to what extent"
    ],
    [
      1549,
      "Sorry to make this a two part inquiry, but my access to the internet is limited as I am moving. 1. I am noticing a large number of deceased insects all over my new home. What is a compassionate way to dispose of them? 2. I have started to leave offerings to my statue of the Buddha. The offering includes water and uncooked rice. What is an appropriate offering, and how often should I change them out? Thank you."
    ],
    [
      2099,
      "What is the right view? How should one practice the right view?"
    ],
    [
      2234,
      "Now that I clearly see the ego as an illusion, it is kicking in fear of its own death. How do I know if the time is right for Ego Death? Shall I keep practicing and gaining consciousness about Ego or should I take some preparation before it dies so as to stand the new energy flowing from within due to enlightenment? Thank you :)"
    ],
    [
      2392,
      "Dear Bhante: Is this Friday a Theravada observance day (Asalha Puja) to commemorate the day the Buddha gave his first sermon? If so, how can lay followers best spend this day in reverence? Could you say a little more about this day? Perhaps a short dhamma talk? Thank you for all you do! Tim"
    ],
    [
      2491,
      "What advice does Buddhism give for those who have experienced anatta spontaneously, but cannot find a way to repeat that experience through meditation? I once had an experience which seems to coincide with what is written in some suttas, and this has led me to pursue experiencing it again. Is this the correct pursuit, or am I misinterpreting the intention of Buddhist practice?"
    ],
    [
      2639,
      "Sometimes the discourse of Buddhism can be interpreted as selfish ironically, could you explain what is the Buddhist concept of helping others?"
    ],
    [
      2785,
      "Until what extent can the senses be decoupled from our experience of them? I mean for example for hearing to become hearing in such a way that words from someone are not mapped to \u201cmeaning\u201d in the brain and just be sound."
    ],
    [
      2845,
      "Bhante, is it good Karma to give money to someone as a donation when you know he's going to use it for drugs or alcohol?"
    ],
    [
      3043,
      "I am meditating for 19-20 months now my question is how can I deal with unethical and hypocrite people ?"
    ],
    [
      3113,
      "In your dhamma talk you explained that attachment to family/loved ones does not bring happiness and is just as meaningless as attachment to other desires. I wonder: what value is there to honoring commitments/connections to loved ones out of care/compassion, for *their* sakes rather than your own? What do you make of the Buddha's decision to leave his family when seeking enlightenment?"
    ],
    [
      3265,
      "I have made progress with anxiety, thank you for that. At this point when it arises I note \"disliking, disliking\" and it subsides or goes away entirely if I note for a while and have time to formally meditate. But this anxiety keeps returning, and the cycle repeats. I go through spans where it is absent for a while (days, maybe weeks), but ultimately it returns, sometimes in a frequency and degree that makes it seem like I made no progress at all. Is there a solution? Does noting \"disliking, disliking\" for 30 minutes sound reasonable (because that's how long it takes sometimes), or is this a sign I am doing something wrong?"
    ],
    [
      3411,
      "Should I allow the existence of gods, ghosts, spirits etc(in buddhist cosmology) distract me from the core teachings? As I have never experienced such things I find it impossible to integrate into my worldview or seriously consider."
    ],
    [
      3466,
      "How do you forgive yourself for hurting someone in the past?"
    ],
    [
      3513,
      "I hope this isn't too silly of a question, but I was wondering about the Buddhist view of caring for others. How do you reconcile causing pain or discomfort for the ultimate well-being of an animal, person, or any living being?"
    ],
    [
      4032,
      "Why is it so hard to meditate on a consistent basis? I know I should do it, but for some reason I fall off the wagon."
    ]
  ]
}